[main] 16:30:28,387 DEBUG [com.qmetry.qaf.automation.testng.pro.QAFAnnotationTransformer2] QAFTestNGListener registered!...
[main] 16:30:28,396 DEBUG [com.qmetry.qaf.automation.testng.pro.QAFInvokedMethodListener2] QAFTestNGListener registered!...
[main] 16:30:28,396 DEBUG [com.qmetry.qaf.automation.testng.pro.QAFMethodInterceptor] QAFTestNGListener registered!...
[main] 16:30:28,397 DEBUG [com.qmetry.qaf.automation.testng.pro.QAFResultListener] QAFTestNGListener registered!...
[main] 16:30:28,397 DEBUG [com.qmetry.qaf.automation.testng.pro.QAFSuiteListener] QAFTestNGListener registered!...
[main] 16:30:28,568 INFO  [com.qmetry.qaf.automation.core.ConfigurationManager] ISFW build info: {qaf-Type=core, qaf-Revision=13-RC1-SNAPSHOT, qaf-Version=2.1, qaf-Build-Time=04-Dec-2017 00:26:09}
[main] 16:30:28,578 INFO  [com.qmetry.qaf.automation.core.ConfigurationManager] Resource dir: /Users/harshit.shihora/Documents/QAS/MAVEN/TestHeadlessMaven/resources. Found property files to load: 3
[main] 16:30:28,591 DEBUG [com.qmetry.qaf.automation.util.PropertyUtil] clear system property ignored:gopherProxySet
[main] 16:30:28,591 DEBUG [com.qmetry.qaf.automation.util.PropertyUtil] clear system property ignored:path.separator
[main] 16:30:28,591 DEBUG [com.qmetry.qaf.automation.util.PropertyUtil] clear system property ignored:file.encoding.pkg
[main] 16:30:28,591 DEBUG [com.qmetry.qaf.automation.util.PropertyUtil] clear system property ignored:file.encoding
[main] 16:30:28,591 DEBUG [com.qmetry.qaf.automation.util.PropertyUtil] clear system property ignored:file.separator
[main] 16:30:28,591 DEBUG [com.qmetry.qaf.automation.util.PropertyUtil] clear system property ignored:user.country
[main] 16:30:28,592 DEBUG [com.qmetry.qaf.automation.util.PropertyUtil] clear system property ignored:user.dir
[main] 16:30:28,592 DEBUG [com.qmetry.qaf.automation.util.PropertyUtil] clear system property ignored:user.home
[main] 16:30:28,592 DEBUG [com.qmetry.qaf.automation.util.PropertyUtil] clear system property ignored:user.timezone
[main] 16:30:28,592 DEBUG [com.qmetry.qaf.automation.util.PropertyUtil] clear system property ignored:user.name
[main] 16:30:28,592 DEBUG [com.qmetry.qaf.automation.util.PropertyUtil] clear system property ignored:user.language
[main] 16:30:28,592 DEBUG [com.qmetry.qaf.automation.util.PropertyUtil] clear system property ignored:selenium.screenshots.relative.path
[main] 16:30:28,592 DEBUG [com.qmetry.qaf.automation.util.PropertyUtil] clear system property ignored:selenium.screenshots.dir
[main] 16:30:28,593 DEBUG [com.qmetry.qaf.automation.util.PropertyUtil] clear system property ignored:basedir
[main] 16:30:28,593 DEBUG [com.qmetry.qaf.automation.util.PropertyUtil] clear system property ignored:os.arch
[main] 16:30:28,593 DEBUG [com.qmetry.qaf.automation.util.PropertyUtil] clear system property ignored:os.name
[main] 16:30:28,593 DEBUG [com.qmetry.qaf.automation.util.PropertyUtil] clear system property ignored:os.version
[main] 16:30:28,593 DEBUG [com.qmetry.qaf.automation.util.PropertyUtil] clear system property ignored:surefire.real.class.path
[main] 16:30:28,593 DEBUG [com.qmetry.qaf.automation.util.PropertyUtil] clear system property ignored:surefire.test.class.path
[main] 16:30:28,593 DEBUG [com.qmetry.qaf.automation.util.PropertyUtil] clear system property ignored:line.separator
[main] 16:30:28,593 DEBUG [com.qmetry.qaf.automation.util.PropertyUtil] clear system property ignored:log4j.configuration
[main] 16:30:28,597 DEBUG [com.qmetry.qaf.automation.util.PropertyUtil] clear system property ignored:org.uncommons.reportng.xml-dialect
[main] 16:30:28,597 DEBUG [com.qmetry.qaf.automation.util.PropertyUtil] clear system property ignored:org.uncommons.reportng.escape-output
[main] 16:30:28,597 DEBUG [com.qmetry.qaf.automation.util.PropertyUtil] clear system property ignored:json.report.dir
[main] 16:30:28,597 DEBUG [com.qmetry.qaf.automation.util.PropertyUtil] clear system property ignored:json.report.root.dir
[main] 16:30:28,597 DEBUG [com.qmetry.qaf.automation.util.PropertyUtil] clear system property ignored:http.nonProxyHosts
[main] 16:30:28,597 DEBUG [com.qmetry.qaf.automation.util.PropertyUtil] clear system property ignored:test.results.dir
[main] 16:30:28,597 DEBUG [com.qmetry.qaf.automation.util.PropertyUtil] clear system property ignored:phantomjs.binary.path
[main] 16:30:28,597 DEBUG [com.qmetry.qaf.automation.util.PropertyUtil] clear system property ignored:awt.toolkit
[main] 16:30:28,597 DEBUG [com.qmetry.qaf.automation.util.PropertyUtil] clear system property ignored:outputDir
[main] 16:30:28,597 DEBUG [com.qmetry.qaf.automation.util.PropertyUtil] clear system property ignored:localRepository
[main] 16:30:28,598 DEBUG [com.qmetry.qaf.automation.util.PropertyUtil] clear system property ignored:socksNonProxyHosts
[main] 16:30:28,598 DEBUG [com.qmetry.qaf.automation.util.PropertyUtil] clear system property ignored:ftp.nonProxyHosts
[main] 16:30:28,599 INFO  [com.qmetry.qaf.automation.core.ConfigurationManager] Resource dir: /Users/harshit.shihora/Documents/QAS/MAVEN/TestHeadlessMaven/resources. Found property files to load: 0
[main] 16:30:28,602 DEBUG [com.qmetry.qaf.automation.util.PropertyUtil] clear system property ignored:gopherProxySet
[main] 16:30:28,602 DEBUG [com.qmetry.qaf.automation.util.PropertyUtil] clear system property ignored:path.separator
[main] 16:30:28,602 DEBUG [com.qmetry.qaf.automation.util.PropertyUtil] clear system property ignored:file.encoding.pkg
[main] 16:30:28,602 DEBUG [com.qmetry.qaf.automation.util.PropertyUtil] clear system property ignored:file.encoding
[main] 16:30:28,602 DEBUG [com.qmetry.qaf.automation.util.PropertyUtil] clear system property ignored:file.separator
[main] 16:30:28,602 DEBUG [com.qmetry.qaf.automation.util.PropertyUtil] clear system property ignored:user.country
[main] 16:30:28,602 DEBUG [com.qmetry.qaf.automation.util.PropertyUtil] clear system property ignored:user.dir
[main] 16:30:28,602 DEBUG [com.qmetry.qaf.automation.util.PropertyUtil] clear system property ignored:user.home
[main] 16:30:28,602 DEBUG [com.qmetry.qaf.automation.util.PropertyUtil] clear system property ignored:user.timezone
[main] 16:30:28,602 DEBUG [com.qmetry.qaf.automation.util.PropertyUtil] clear system property ignored:user.name
[main] 16:30:28,602 DEBUG [com.qmetry.qaf.automation.util.PropertyUtil] clear system property ignored:user.language
[main] 16:30:28,602 DEBUG [com.qmetry.qaf.automation.util.PropertyUtil] clear system property ignored:selenium.screenshots.relative.path
[main] 16:30:28,602 DEBUG [com.qmetry.qaf.automation.util.PropertyUtil] clear system property ignored:selenium.screenshots.dir
[main] 16:30:28,602 DEBUG [com.qmetry.qaf.automation.util.PropertyUtil] clear system property ignored:basedir
[main] 16:30:28,602 DEBUG [com.qmetry.qaf.automation.util.PropertyUtil] clear system property ignored:os.arch
[main] 16:30:28,603 DEBUG [com.qmetry.qaf.automation.util.PropertyUtil] clear system property ignored:os.name
[main] 16:30:28,603 DEBUG [com.qmetry.qaf.automation.util.PropertyUtil] clear system property ignored:os.version
[main] 16:30:28,603 DEBUG [com.qmetry.qaf.automation.util.PropertyUtil] clear system property ignored:surefire.real.class.path
[main] 16:30:28,603 DEBUG [com.qmetry.qaf.automation.util.PropertyUtil] clear system property ignored:surefire.test.class.path
[main] 16:30:28,603 DEBUG [com.qmetry.qaf.automation.util.PropertyUtil] clear system property ignored:line.separator
[main] 16:30:28,603 DEBUG [com.qmetry.qaf.automation.util.PropertyUtil] clear system property ignored:log4j.configuration
[main] 16:30:28,603 DEBUG [com.qmetry.qaf.automation.util.PropertyUtil] clear system property ignored:org.uncommons.reportng.xml-dialect
[main] 16:30:28,603 DEBUG [com.qmetry.qaf.automation.util.PropertyUtil] clear system property ignored:org.uncommons.reportng.escape-output
[main] 16:30:28,603 DEBUG [com.qmetry.qaf.automation.util.PropertyUtil] clear system property ignored:json.report.dir
[main] 16:30:28,603 DEBUG [com.qmetry.qaf.automation.util.PropertyUtil] clear system property ignored:json.report.root.dir
[main] 16:30:28,603 DEBUG [com.qmetry.qaf.automation.util.PropertyUtil] clear system property ignored:http.nonProxyHosts
[main] 16:30:28,603 DEBUG [com.qmetry.qaf.automation.util.PropertyUtil] clear system property ignored:test.results.dir
[main] 16:30:28,603 DEBUG [com.qmetry.qaf.automation.util.PropertyUtil] clear system property ignored:phantomjs.binary.path
[main] 16:30:28,603 DEBUG [com.qmetry.qaf.automation.util.PropertyUtil] clear system property ignored:awt.toolkit
[main] 16:30:28,603 DEBUG [com.qmetry.qaf.automation.util.PropertyUtil] clear system property ignored:outputDir
[main] 16:30:28,604 DEBUG [com.qmetry.qaf.automation.util.PropertyUtil] clear system property ignored:localRepository
[main] 16:30:28,604 DEBUG [com.qmetry.qaf.automation.util.PropertyUtil] clear system property ignored:socksNonProxyHosts
[main] 16:30:28,604 DEBUG [com.qmetry.qaf.automation.util.PropertyUtil] clear system property ignored:ftp.nonProxyHosts
[main] 16:30:28,797 DEBUG [com.qmetry.qaf.automation.testng.pro.QAFInvokedMethodListener2] beforeInvocation: setupSuit
[main] 16:30:28,800 DEBUG [com.qmetry.qaf.automation.testng.pro.QAFInvokedMethodListener2] afterInvocation: setupSuit - com.qmetry.qaf.automation.testng is test:false
[main] 16:30:28,800 DEBUG [com.qmetry.qaf.automation.testng.pro.QAFInvokedMethodListener2] afterInvocation: Done
[main] 16:30:28,800 DEBUG [com.qmetry.qaf.automation.testng.pro.QAFInvokedMethodListener2] beforeInvocation: setupTest
[main] 16:30:28,802 DEBUG [com.qmetry.qaf.automation.testng.pro.QAFInvokedMethodListener2] afterInvocation: setupTest - com.qmetry.qaf.automation.testng is test:false
[main] 16:30:28,802 DEBUG [com.qmetry.qaf.automation.testng.pro.QAFInvokedMethodListener2] afterInvocation: Done
[main] 16:30:28,803 DEBUG [com.qmetry.qaf.automation.testng.pro.QAFMethodInterceptor] Method Order interceptor called
[main] 16:30:28,806 DEBUG [com.qmetry.qaf.automation.testng.pro.QAFInvokedMethodListener2] beforeInvocation: setup
[main] 16:30:28,807 DEBUG [com.qmetry.qaf.automation.testng.pro.QAFInvokedMethodListener2] afterInvocation: setup - com.qmetry.qaf.automation.testng is test:false
[main] 16:30:28,807 DEBUG [com.qmetry.qaf.automation.testng.pro.QAFInvokedMethodListener2] afterInvocation: Done
[main] 16:30:28,813 DEBUG [com.qmetry.qaf.automation.testng.pro.QAFInvokedMethodListener2] beforeInvocation: setupMethod
[main] 16:30:28,813 DEBUG [com.qmetry.qaf.automation.testng.pro.QAFInvokedMethodListener2] afterInvocation: setupMethod - com.qmetry.qaf.automation.testng is test:false
[main] 16:30:28,813 DEBUG [com.qmetry.qaf.automation.testng.pro.QAFInvokedMethodListener2] afterInvocation: Done
[main] 16:30:28,813 DEBUG [com.qmetry.qaf.automation.testng.pro.QAFResultListener] onTestStart: start
[main] 16:30:28,814 DEBUG [com.qmetry.qaf.automation.testng.pro.QAFInvokedMethodListener2] beforeInvocation: Provprov 5
[main] 16:30:28,936 INFO  [com.qmetry.qaf.automation.core.QAFTestBase] Initializing Driver...browser_str:otherDriver,base_url:http://,sel_server:localhost,port:4444
[main] 16:30:28,956 INFO  [com.qmetry.qaf.automation.ui.UiDriverFactory] Driver: otherDriver
[main] 16:30:29,168 DEBUG [com.qmetry.qaf.automation.testng.pro.QAFInvokedMethodListener2] afterInvocation: Provprov 5 - com.qmetry.qaf.automation.step.client is test:true
[main] 16:30:29,168 DEBUG [com.qmetry.qaf.automation.testng.pro.QAFInvokedMethodListener2] afterInvocation: Done
[main] 16:30:29,182 DEBUG [com.qmetry.qaf.automation.testng.report.ReporterUtil] method:  result: skip groups: {description=Sample Test Scenario, groups=[Ljava.lang.String;@16a0ee18, lineNo=3, name=Provprov 5, referece=scenarios/suite1.bdd, resultFileName=Provprov_5, sign=scenarios.suite1.bdd.Provprov 5()[pri:1000, instance:com.qmetry.qaf.automation.step.client.Scenario@3e8]}
[main] 16:30:29,192 DEBUG [com.qmetry.qaf.automation.testng.pro.QAFInvokedMethodListener2] beforeInvocation: afterMethod
[main] 16:30:29,193 DEBUG [com.qmetry.qaf.automation.testng.pro.QAFInvokedMethodListener2] afterInvocation: afterMethod - com.qmetry.qaf.automation.ui is test:false
[main] 16:30:29,193 DEBUG [com.qmetry.qaf.automation.testng.pro.QAFInvokedMethodListener2] afterInvocation: Done
[main] 16:30:29,193 DEBUG [com.qmetry.qaf.automation.testng.pro.QAFInvokedMethodListener2] beforeInvocation: afterClass
[main] 16:30:29,194 DEBUG [com.qmetry.qaf.automation.testng.pro.QAFInvokedMethodListener2] afterInvocation: afterClass - com.qmetry.qaf.automation.ui is test:false
[main] 16:30:29,194 DEBUG [com.qmetry.qaf.automation.testng.pro.QAFInvokedMethodListener2] afterInvocation: Done
[main] 16:30:29,195 DEBUG [com.qmetry.qaf.automation.testng.pro.QAFInvokedMethodListener2] beforeInvocation: afterTest
[main] 16:30:29,195 DEBUG [com.qmetry.qaf.automation.testng.pro.QAFInvokedMethodListener2] afterInvocation: afterTest - com.qmetry.qaf.automation.ui is test:false
[main] 16:30:29,195 DEBUG [com.qmetry.qaf.automation.testng.pro.QAFInvokedMethodListener2] afterInvocation: Done
[main] 16:30:29,214 DEBUG [com.qmetry.qaf.automation.testng.pro.QAFResultListener] onfinish testcntext: start
[main] 16:30:29,223 DEBUG [com.qmetry.qaf.automation.testng.pro.QAFInvokedMethodListener2] beforeInvocation: afterSuit
[main] 16:30:29,224 DEBUG [com.qmetry.qaf.automation.testng.pro.QAFInvokedMethodListener2] afterInvocation: afterSuit - com.qmetry.qaf.automation.testng is test:false
[main] 16:30:29,224 DEBUG [com.qmetry.qaf.automation.testng.pro.QAFInvokedMethodListener2] afterInvocation: Done
[main] 16:30:29,227 DEBUG [com.qmetry.qaf.automation.testng.pro.QAFSuiteListener] onFinish: start
[main] 16:30:29,232 DEBUG [com.qmetry.qaf.automation.testng.pro.QAFSuiteListener] onFinish: done
