[main] 16:46:43,543 DEBUG [com.qmetry.qaf.automation.testng.pro.QAFAnnotationTransformer2] QAFTestNGListener registered!...
[main] 16:46:43,549 DEBUG [com.qmetry.qaf.automation.testng.pro.QAFInvokedMethodListener2] QAFTestNGListener registered!...
[main] 16:46:43,549 DEBUG [com.qmetry.qaf.automation.testng.pro.QAFMethodInterceptor] QAFTestNGListener registered!...
[main] 16:46:43,550 DEBUG [com.qmetry.qaf.automation.testng.pro.QAFResultListener] QAFTestNGListener registered!...
[main] 16:46:43,550 DEBUG [com.qmetry.qaf.automation.testng.pro.QAFSuiteListener] QAFTestNGListener registered!...
[main] 16:46:43,692 INFO  [com.qmetry.qaf.automation.core.ConfigurationManager] ISFW build info: {qaf-Type=core, qaf-Revision=13-RC1-SNAPSHOT, qaf-Version=2.1, qaf-Build-Time=04-Dec-2017 00:26:09}
[main] 16:46:43,702 INFO  [com.qmetry.qaf.automation.core.ConfigurationManager] Resource dir: /Users/harshit.shihora/Documents/QAS/MAVEN/TestHeadlessMaven/resources. Found property files to load: 3
[main] 16:46:43,714 DEBUG [com.qmetry.qaf.automation.util.PropertyUtil] clear system property ignored:gopherProxySet
[main] 16:46:43,714 DEBUG [com.qmetry.qaf.automation.util.PropertyUtil] clear system property ignored:path.separator
[main] 16:46:43,714 DEBUG [com.qmetry.qaf.automation.util.PropertyUtil] clear system property ignored:file.encoding.pkg
[main] 16:46:43,714 DEBUG [com.qmetry.qaf.automation.util.PropertyUtil] clear system property ignored:file.encoding
[main] 16:46:43,714 DEBUG [com.qmetry.qaf.automation.util.PropertyUtil] clear system property ignored:file.separator
[main] 16:46:43,714 DEBUG [com.qmetry.qaf.automation.util.PropertyUtil] clear system property ignored:user.country
[main] 16:46:43,714 DEBUG [com.qmetry.qaf.automation.util.PropertyUtil] clear system property ignored:user.dir
[main] 16:46:43,714 DEBUG [com.qmetry.qaf.automation.util.PropertyUtil] clear system property ignored:user.home
[main] 16:46:43,715 DEBUG [com.qmetry.qaf.automation.util.PropertyUtil] clear system property ignored:user.timezone
[main] 16:46:43,715 DEBUG [com.qmetry.qaf.automation.util.PropertyUtil] clear system property ignored:user.name
[main] 16:46:43,715 DEBUG [com.qmetry.qaf.automation.util.PropertyUtil] clear system property ignored:user.language
[main] 16:46:43,715 DEBUG [com.qmetry.qaf.automation.util.PropertyUtil] clear system property ignored:selenium.screenshots.relative.path
[main] 16:46:43,715 DEBUG [com.qmetry.qaf.automation.util.PropertyUtil] clear system property ignored:selenium.screenshots.dir
[main] 16:46:43,715 DEBUG [com.qmetry.qaf.automation.util.PropertyUtil] clear system property ignored:basedir
[main] 16:46:43,715 DEBUG [com.qmetry.qaf.automation.util.PropertyUtil] clear system property ignored:os.arch
[main] 16:46:43,715 DEBUG [com.qmetry.qaf.automation.util.PropertyUtil] clear system property ignored:os.name
[main] 16:46:43,715 DEBUG [com.qmetry.qaf.automation.util.PropertyUtil] clear system property ignored:os.version
[main] 16:46:43,715 DEBUG [com.qmetry.qaf.automation.util.PropertyUtil] clear system property ignored:surefire.real.class.path
[main] 16:46:43,715 DEBUG [com.qmetry.qaf.automation.util.PropertyUtil] clear system property ignored:surefire.test.class.path
[main] 16:46:43,715 DEBUG [com.qmetry.qaf.automation.util.PropertyUtil] clear system property ignored:line.separator
[main] 16:46:43,716 DEBUG [com.qmetry.qaf.automation.util.PropertyUtil] clear system property ignored:log4j.configuration
[main] 16:46:43,718 DEBUG [com.qmetry.qaf.automation.util.PropertyUtil] clear system property ignored:org.uncommons.reportng.xml-dialect
[main] 16:46:43,718 DEBUG [com.qmetry.qaf.automation.util.PropertyUtil] clear system property ignored:org.uncommons.reportng.escape-output
[main] 16:46:43,718 DEBUG [com.qmetry.qaf.automation.util.PropertyUtil] clear system property ignored:json.report.dir
[main] 16:46:43,718 DEBUG [com.qmetry.qaf.automation.util.PropertyUtil] clear system property ignored:json.report.root.dir
[main] 16:46:43,718 DEBUG [com.qmetry.qaf.automation.util.PropertyUtil] clear system property ignored:http.nonProxyHosts
[main] 16:46:43,718 DEBUG [com.qmetry.qaf.automation.util.PropertyUtil] clear system property ignored:test.results.dir
[main] 16:46:43,718 DEBUG [com.qmetry.qaf.automation.util.PropertyUtil] clear system property ignored:phantomjs.binary.path
[main] 16:46:43,718 DEBUG [com.qmetry.qaf.automation.util.PropertyUtil] clear system property ignored:awt.toolkit
[main] 16:46:43,718 DEBUG [com.qmetry.qaf.automation.util.PropertyUtil] clear system property ignored:outputDir
[main] 16:46:43,718 DEBUG [com.qmetry.qaf.automation.util.PropertyUtil] clear system property ignored:localRepository
[main] 16:46:43,719 DEBUG [com.qmetry.qaf.automation.util.PropertyUtil] clear system property ignored:socksNonProxyHosts
[main] 16:46:43,719 DEBUG [com.qmetry.qaf.automation.util.PropertyUtil] clear system property ignored:ftp.nonProxyHosts
[main] 16:46:43,720 INFO  [com.qmetry.qaf.automation.core.ConfigurationManager] Resource dir: /Users/harshit.shihora/Documents/QAS/MAVEN/TestHeadlessMaven/resources. Found property files to load: 0
[main] 16:46:43,723 DEBUG [com.qmetry.qaf.automation.util.PropertyUtil] clear system property ignored:gopherProxySet
[main] 16:46:43,723 DEBUG [com.qmetry.qaf.automation.util.PropertyUtil] clear system property ignored:path.separator
[main] 16:46:43,723 DEBUG [com.qmetry.qaf.automation.util.PropertyUtil] clear system property ignored:file.encoding.pkg
[main] 16:46:43,723 DEBUG [com.qmetry.qaf.automation.util.PropertyUtil] clear system property ignored:file.encoding
[main] 16:46:43,723 DEBUG [com.qmetry.qaf.automation.util.PropertyUtil] clear system property ignored:file.separator
[main] 16:46:43,723 DEBUG [com.qmetry.qaf.automation.util.PropertyUtil] clear system property ignored:user.country
[main] 16:46:43,723 DEBUG [com.qmetry.qaf.automation.util.PropertyUtil] clear system property ignored:user.dir
[main] 16:46:43,723 DEBUG [com.qmetry.qaf.automation.util.PropertyUtil] clear system property ignored:user.home
[main] 16:46:43,723 DEBUG [com.qmetry.qaf.automation.util.PropertyUtil] clear system property ignored:user.timezone
[main] 16:46:43,723 DEBUG [com.qmetry.qaf.automation.util.PropertyUtil] clear system property ignored:user.name
[main] 16:46:43,723 DEBUG [com.qmetry.qaf.automation.util.PropertyUtil] clear system property ignored:user.language
[main] 16:46:43,723 DEBUG [com.qmetry.qaf.automation.util.PropertyUtil] clear system property ignored:selenium.screenshots.relative.path
[main] 16:46:43,723 DEBUG [com.qmetry.qaf.automation.util.PropertyUtil] clear system property ignored:selenium.screenshots.dir
[main] 16:46:43,724 DEBUG [com.qmetry.qaf.automation.util.PropertyUtil] clear system property ignored:basedir
[main] 16:46:43,724 DEBUG [com.qmetry.qaf.automation.util.PropertyUtil] clear system property ignored:os.arch
[main] 16:46:43,724 DEBUG [com.qmetry.qaf.automation.util.PropertyUtil] clear system property ignored:os.name
[main] 16:46:43,724 DEBUG [com.qmetry.qaf.automation.util.PropertyUtil] clear system property ignored:os.version
[main] 16:46:43,724 DEBUG [com.qmetry.qaf.automation.util.PropertyUtil] clear system property ignored:surefire.real.class.path
[main] 16:46:43,724 DEBUG [com.qmetry.qaf.automation.util.PropertyUtil] clear system property ignored:surefire.test.class.path
[main] 16:46:43,724 DEBUG [com.qmetry.qaf.automation.util.PropertyUtil] clear system property ignored:line.separator
[main] 16:46:43,724 DEBUG [com.qmetry.qaf.automation.util.PropertyUtil] clear system property ignored:log4j.configuration
[main] 16:46:43,724 DEBUG [com.qmetry.qaf.automation.util.PropertyUtil] clear system property ignored:org.uncommons.reportng.xml-dialect
[main] 16:46:43,724 DEBUG [com.qmetry.qaf.automation.util.PropertyUtil] clear system property ignored:org.uncommons.reportng.escape-output
[main] 16:46:43,724 DEBUG [com.qmetry.qaf.automation.util.PropertyUtil] clear system property ignored:json.report.dir
[main] 16:46:43,724 DEBUG [com.qmetry.qaf.automation.util.PropertyUtil] clear system property ignored:json.report.root.dir
[main] 16:46:43,724 DEBUG [com.qmetry.qaf.automation.util.PropertyUtil] clear system property ignored:http.nonProxyHosts
[main] 16:46:43,724 DEBUG [com.qmetry.qaf.automation.util.PropertyUtil] clear system property ignored:test.results.dir
[main] 16:46:43,724 DEBUG [com.qmetry.qaf.automation.util.PropertyUtil] clear system property ignored:phantomjs.binary.path
[main] 16:46:43,724 DEBUG [com.qmetry.qaf.automation.util.PropertyUtil] clear system property ignored:awt.toolkit
[main] 16:46:43,724 DEBUG [com.qmetry.qaf.automation.util.PropertyUtil] clear system property ignored:outputDir
[main] 16:46:43,724 DEBUG [com.qmetry.qaf.automation.util.PropertyUtil] clear system property ignored:localRepository
[main] 16:46:43,725 DEBUG [com.qmetry.qaf.automation.util.PropertyUtil] clear system property ignored:socksNonProxyHosts
[main] 16:46:43,725 DEBUG [com.qmetry.qaf.automation.util.PropertyUtil] clear system property ignored:ftp.nonProxyHosts
[main] 16:46:43,938 DEBUG [com.qmetry.qaf.automation.testng.pro.QAFInvokedMethodListener2] beforeInvocation: setupSuit
[main] 16:46:43,940 DEBUG [com.qmetry.qaf.automation.testng.pro.QAFInvokedMethodListener2] afterInvocation: setupSuit - com.qmetry.qaf.automation.testng is test:false
[main] 16:46:43,940 DEBUG [com.qmetry.qaf.automation.testng.pro.QAFInvokedMethodListener2] afterInvocation: Done
[main] 16:46:43,940 DEBUG [com.qmetry.qaf.automation.testng.pro.QAFInvokedMethodListener2] beforeInvocation: setupTest
[main] 16:46:43,941 DEBUG [com.qmetry.qaf.automation.testng.pro.QAFInvokedMethodListener2] afterInvocation: setupTest - com.qmetry.qaf.automation.testng is test:false
[main] 16:46:43,942 DEBUG [com.qmetry.qaf.automation.testng.pro.QAFInvokedMethodListener2] afterInvocation: Done
[main] 16:46:43,942 DEBUG [com.qmetry.qaf.automation.testng.pro.QAFMethodInterceptor] Method Order interceptor called
[main] 16:46:43,946 DEBUG [com.qmetry.qaf.automation.testng.pro.QAFInvokedMethodListener2] beforeInvocation: setup
[main] 16:46:43,947 DEBUG [com.qmetry.qaf.automation.testng.pro.QAFInvokedMethodListener2] afterInvocation: setup - com.qmetry.qaf.automation.testng is test:false
[main] 16:46:43,947 DEBUG [com.qmetry.qaf.automation.testng.pro.QAFInvokedMethodListener2] afterInvocation: Done
[main] 16:46:43,955 DEBUG [com.qmetry.qaf.automation.testng.pro.QAFInvokedMethodListener2] beforeInvocation: setupMethod
[main] 16:46:43,955 DEBUG [com.qmetry.qaf.automation.testng.pro.QAFInvokedMethodListener2] afterInvocation: setupMethod - com.qmetry.qaf.automation.testng is test:false
[main] 16:46:43,956 DEBUG [com.qmetry.qaf.automation.testng.pro.QAFInvokedMethodListener2] afterInvocation: Done
[main] 16:46:43,956 DEBUG [com.qmetry.qaf.automation.testng.pro.QAFResultListener] onTestStart: start
[main] 16:46:43,956 DEBUG [com.qmetry.qaf.automation.testng.pro.QAFInvokedMethodListener2] beforeInvocation: Provprov
[main] 16:46:44,085 INFO  [com.qmetry.qaf.automation.core.QAFTestBase] Initializing Driver...browser_str:otherDriver,base_url:http://,sel_server:localhost,port:4444
[main] 16:46:44,108 INFO  [com.qmetry.qaf.automation.ui.UiDriverFactory] Driver: otherDriver
[main] 16:46:44,288 DEBUG [com.qmetry.qaf.automation.testng.pro.QAFInvokedMethodListener2] afterInvocation: Provprov - com.qmetry.qaf.automation.step.client is test:true
[main] 16:46:44,289 DEBUG [com.qmetry.qaf.automation.testng.pro.QAFInvokedMethodListener2] afterInvocation: Done
[main] 16:46:44,298 DEBUG [com.qmetry.qaf.automation.testng.report.ReporterUtil] method:  result: skip groups: {description=Sample Test Scenario, groups=[Ljava.lang.String;@16a0ee18, lineNo=3, name=Provprov, referece=scenarios/suite1.bdd, resultFileName=Provprov, sign=scenarios.suite1.bdd.Provprov()[pri:1000, instance:com.qmetry.qaf.automation.step.client.Scenario@3e8]}
[main] 16:46:44,302 DEBUG [com.qmetry.qaf.automation.testng.pro.QAFInvokedMethodListener2] beforeInvocation: afterMethod
[main] 16:46:44,302 DEBUG [com.qmetry.qaf.automation.testng.pro.QAFInvokedMethodListener2] afterInvocation: afterMethod - com.qmetry.qaf.automation.ui is test:false
[main] 16:46:44,302 DEBUG [com.qmetry.qaf.automation.testng.pro.QAFInvokedMethodListener2] afterInvocation: Done
[main] 16:46:44,303 DEBUG [com.qmetry.qaf.automation.testng.pro.QAFInvokedMethodListener2] beforeInvocation: afterClass
[main] 16:46:44,303 DEBUG [com.qmetry.qaf.automation.testng.pro.QAFInvokedMethodListener2] afterInvocation: afterClass - com.qmetry.qaf.automation.ui is test:false
[main] 16:46:44,303 DEBUG [com.qmetry.qaf.automation.testng.pro.QAFInvokedMethodListener2] afterInvocation: Done
[main] 16:46:44,304 DEBUG [com.qmetry.qaf.automation.testng.pro.QAFInvokedMethodListener2] beforeInvocation: afterTest
[main] 16:46:44,305 DEBUG [com.qmetry.qaf.automation.testng.pro.QAFInvokedMethodListener2] afterInvocation: afterTest - com.qmetry.qaf.automation.ui is test:false
[main] 16:46:44,305 DEBUG [com.qmetry.qaf.automation.testng.pro.QAFInvokedMethodListener2] afterInvocation: Done
[main] 16:46:44,323 DEBUG [com.qmetry.qaf.automation.testng.pro.QAFResultListener] onfinish testcntext: start
[main] 16:46:44,330 DEBUG [com.qmetry.qaf.automation.testng.pro.QAFInvokedMethodListener2] beforeInvocation: afterSuit
[main] 16:46:44,331 DEBUG [com.qmetry.qaf.automation.testng.pro.QAFInvokedMethodListener2] afterInvocation: afterSuit - com.qmetry.qaf.automation.testng is test:false
[main] 16:46:44,331 DEBUG [com.qmetry.qaf.automation.testng.pro.QAFInvokedMethodListener2] afterInvocation: Done
[main] 16:46:44,334 DEBUG [com.qmetry.qaf.automation.testng.pro.QAFSuiteListener] onFinish: start
[main] 16:46:44,339 DEBUG [com.qmetry.qaf.automation.testng.pro.QAFSuiteListener] onFinish: done
